%!PS-Adobe-3.0 EPSF-3.0
%%Creator: jlibeps 0.1, https://sourceforge.net/projects/jlibeps/
%%Title: LaTeXDraw
%%CreationDate: Fri Aug 05 17:05:50 IST 2016
%%BoundingBox: 0 0 350 350
%%DocumentData: Clean7Bit
%%DocumentProcessColors: Black
%%ColorUsage: Color
%%Origin: 0 0
%%Pages: 1
%%Page: 1 1
%%EndComments

gsave
-5.0 355.0 translate
2.0 setlinewidth
10.0 setmiterlimit
0 setlinejoin
0 setlinecap
[ ] 0 setdash
2.0 setlinewidth
10.0 setmiterlimit
0 setlinejoin
0 setlinecap
[ ] 0 setdash
0.77254903 0.19607843 0.19607843 setrgbcolor
newpath
21.0 -21.0 moveto
99.0 -21.0 lineto
99.0 -99.0 lineto
21.0 -99.0 lineto
21.0 -21.0 lineto
closepath
fill
newpath
0.0 0.0 0.0 setrgbcolor
0.0 0.0 0.0 setrgbcolor
newpath
21.0 -21.0 moveto
99.0 -21.0 lineto
99.0 -99.0 lineto
21.0 -99.0 lineto
21.0 -21.0 lineto
closepath
stroke
newpath
0.0 0.0 0.0 setrgbcolor
2.0 setlinewidth
10.0 setmiterlimit
0 setlinejoin
0 setlinecap
[ ] 0 setdash
2.0 setlinewidth
10.0 setmiterlimit
0 setlinejoin
0 setlinecap
[ ] 0 setdash
0.0 0.0 0.0 setrgbcolor
0.0 0.0 0.0 setrgbcolor
newpath
101.0 -21.0 moveto
179.0 -21.0 lineto
179.0 -99.0 lineto
101.0 -99.0 lineto
101.0 -21.0 lineto
closepath
stroke
newpath
0.0 0.0 0.0 setrgbcolor
2.0 setlinewidth
10.0 setmiterlimit
0 setlinejoin
0 setlinecap
[ ] 0 setdash
2.0 setlinewidth
10.0 setmiterlimit
0 setlinejoin
0 setlinecap
[ ] 0 setdash
0.0 0.0 0.0 setrgbcolor
0.0 0.0 0.0 setrgbcolor
newpath
181.0 -21.0 moveto
259.0 -21.0 lineto
259.0 -99.0 lineto
181.0 -99.0 lineto
181.0 -21.0 lineto
closepath
stroke
newpath
0.0 0.0 0.0 setrgbcolor
2.0 setlinewidth
10.0 setmiterlimit
0 setlinejoin
0 setlinecap
[ ] 0 setdash
2.0 setlinewidth
10.0 setmiterlimit
0 setlinejoin
0 setlinecap
[ ] 0 setdash
0.0 0.0 0.0 setrgbcolor
0.0 0.0 0.0 setrgbcolor
newpath
261.0 -21.0 moveto
339.0 -21.0 lineto
339.0 -99.0 lineto
261.0 -99.0 lineto
261.0 -21.0 lineto
closepath
stroke
newpath
0.0 0.0 0.0 setrgbcolor
2.0 setlinewidth
10.0 setmiterlimit
0 setlinejoin
0 setlinecap
[ ] 0 setdash
2.0 setlinewidth
10.0 setmiterlimit
0 setlinejoin
0 setlinecap
[ ] 0 setdash
0.0 0.0 0.0 setrgbcolor
0.0 0.0 0.0 setrgbcolor
newpath
21.0 -101.0 moveto
99.0 -101.0 lineto
99.0 -179.0 lineto
21.0 -179.0 lineto
21.0 -101.0 lineto
closepath
stroke
newpath
0.0 0.0 0.0 setrgbcolor
2.0 setlinewidth
10.0 setmiterlimit
0 setlinejoin
0 setlinecap
[ ] 0 setdash
2.0 setlinewidth
10.0 setmiterlimit
0 setlinejoin
0 setlinecap
[ ] 0 setdash
0.0 0.0 0.0 setrgbcolor
0.0 0.0 0.0 setrgbcolor
newpath
101.0 -101.0 moveto
179.0 -101.0 lineto
179.0 -179.0 lineto
101.0 -179.0 lineto
101.0 -101.0 lineto
closepath
stroke
newpath
0.0 0.0 0.0 setrgbcolor
2.0 setlinewidth
10.0 setmiterlimit
0 setlinejoin
0 setlinecap
[ ] 0 setdash
2.0 setlinewidth
10.0 setmiterlimit
0 setlinejoin
0 setlinecap
[ ] 0 setdash
0.0 0.0 0.0 setrgbcolor
0.0 0.0 0.0 setrgbcolor
newpath
181.0 -101.0 moveto
259.0 -101.0 lineto
259.0 -179.0 lineto
181.0 -179.0 lineto
181.0 -101.0 lineto
closepath
stroke
newpath
0.0 0.0 0.0 setrgbcolor
2.0 setlinewidth
10.0 setmiterlimit
0 setlinejoin
0 setlinecap
[ ] 0 setdash
2.0 setlinewidth
10.0 setmiterlimit
0 setlinejoin
0 setlinecap
[ ] 0 setdash
0.0 0.0 0.0 setrgbcolor
0.0 0.0 0.0 setrgbcolor
newpath
261.0 -101.0 moveto
339.0 -101.0 lineto
339.0 -179.0 lineto
261.0 -179.0 lineto
261.0 -101.0 lineto
closepath
stroke
newpath
0.0 0.0 0.0 setrgbcolor
2.0 setlinewidth
10.0 setmiterlimit
0 setlinejoin
0 setlinecap
[ ] 0 setdash
2.0 setlinewidth
10.0 setmiterlimit
0 setlinejoin
0 setlinecap
[ ] 0 setdash
0.0 0.0 0.0 setrgbcolor
0.0 0.0 0.0 setrgbcolor
newpath
21.0 -181.0 moveto
99.0 -181.0 lineto
99.0 -259.0 lineto
21.0 -259.0 lineto
21.0 -181.0 lineto
closepath
stroke
newpath
0.0 0.0 0.0 setrgbcolor
2.0 setlinewidth
10.0 setmiterlimit
0 setlinejoin
0 setlinecap
[ ] 0 setdash
2.0 setlinewidth
10.0 setmiterlimit
0 setlinejoin
0 setlinecap
[ ] 0 setdash
0.0 0.0 0.0 setrgbcolor
0.0 0.0 0.0 setrgbcolor
newpath
101.0 -181.0 moveto
179.0 -181.0 lineto
179.0 -259.0 lineto
101.0 -259.0 lineto
101.0 -181.0 lineto
closepath
stroke
newpath
0.0 0.0 0.0 setrgbcolor
2.0 setlinewidth
10.0 setmiterlimit
0 setlinejoin
0 setlinecap
[ ] 0 setdash
2.0 setlinewidth
10.0 setmiterlimit
0 setlinejoin
0 setlinecap
[ ] 0 setdash
0.0 0.0 0.0 setrgbcolor
0.0 0.0 0.0 setrgbcolor
newpath
181.0 -181.0 moveto
259.0 -181.0 lineto
259.0 -259.0 lineto
181.0 -259.0 lineto
181.0 -181.0 lineto
closepath
stroke
newpath
0.0 0.0 0.0 setrgbcolor
2.0 setlinewidth
10.0 setmiterlimit
0 setlinejoin
0 setlinecap
[ ] 0 setdash
2.0 setlinewidth
10.0 setmiterlimit
0 setlinejoin
0 setlinecap
[ ] 0 setdash
0.0 0.0 0.0 setrgbcolor
0.0 0.0 0.0 setrgbcolor
newpath
261.0 -181.0 moveto
339.0 -181.0 lineto
339.0 -259.0 lineto
261.0 -259.0 lineto
261.0 -181.0 lineto
closepath
stroke
newpath
0.0 0.0 0.0 setrgbcolor
2.0 setlinewidth
10.0 setmiterlimit
0 setlinejoin
0 setlinecap
[ ] 0 setdash
2.0 setlinewidth
10.0 setmiterlimit
0 setlinejoin
0 setlinecap
[ ] 0 setdash
0.0 0.0 0.0 setrgbcolor
0.0 0.0 0.0 setrgbcolor
newpath
21.0 -261.0 moveto
99.0 -261.0 lineto
99.0 -339.0 lineto
21.0 -339.0 lineto
21.0 -261.0 lineto
closepath
stroke
newpath
0.0 0.0 0.0 setrgbcolor
2.0 setlinewidth
10.0 setmiterlimit
0 setlinejoin
0 setlinecap
[ ] 0 setdash
2.0 setlinewidth
10.0 setmiterlimit
0 setlinejoin
0 setlinecap
[ ] 0 setdash
0.0 0.0 0.0 setrgbcolor
0.0 0.0 0.0 setrgbcolor
newpath
101.0 -261.0 moveto
179.0 -261.0 lineto
179.0 -339.0 lineto
101.0 -339.0 lineto
101.0 -261.0 lineto
closepath
stroke
newpath
0.0 0.0 0.0 setrgbcolor
2.0 setlinewidth
10.0 setmiterlimit
0 setlinejoin
0 setlinecap
[ ] 0 setdash
2.0 setlinewidth
10.0 setmiterlimit
0 setlinejoin
0 setlinecap
[ ] 0 setdash
0.0 0.0 0.0 setrgbcolor
0.0 0.0 0.0 setrgbcolor
newpath
181.0 -261.0 moveto
259.0 -261.0 lineto
259.0 -339.0 lineto
181.0 -339.0 lineto
181.0 -261.0 lineto
closepath
stroke
newpath
0.0 0.0 0.0 setrgbcolor
2.0 setlinewidth
10.0 setmiterlimit
0 setlinejoin
0 setlinecap
[ ] 0 setdash
2.0 setlinewidth
10.0 setmiterlimit
0 setlinejoin
0 setlinecap
[ ] 0 setdash
0.0 0.0 0.0 setrgbcolor
0.0 0.0 0.0 setrgbcolor
newpath
261.0 -261.0 moveto
339.0 -261.0 lineto
339.0 -339.0 lineto
261.0 -339.0 lineto
261.0 -261.0 lineto
closepath
stroke
newpath
0.0 0.0 0.0 setrgbcolor
2.0 setlinewidth
10.0 setmiterlimit
0 setlinejoin
0 setlinecap
[ ] 0 setdash
2.0 setlinewidth
10.0 setmiterlimit
0 setlinejoin
0 setlinecap
[ ] 0 setdash
0.0 0.0 0.0 setrgbcolor
0.0 0.0 0.0 setrgbcolor
newpath
11.0 -11.0 moveto
349.0 -11.0 lineto
349.0 -349.0 lineto
11.0 -349.0 lineto
11.0 -11.0 lineto
closepath
stroke
newpath
0.0 0.0 0.0 setrgbcolor
2.0 setlinewidth
10.0 setmiterlimit
0 setlinejoin
0 setlinecap
[ ] 0 setdash
2.0 setlinewidth
10.0 setmiterlimit
0 setlinejoin
0 setlinecap
[ ] 0 setdash
0.08627451 0.63529414 0.17254902 setrgbcolor
newpath
151.0 -131.0 moveto
229.0 -131.0 lineto
229.0 -209.0 lineto
151.0 -209.0 lineto
151.0 -131.0 lineto
closepath
fill
newpath
0.0 0.0 0.0 setrgbcolor
0.0 0.0 0.0 setrgbcolor
newpath
151.0 -131.0 moveto
229.0 -131.0 lineto
229.0 -209.0 lineto
151.0 -209.0 lineto
151.0 -131.0 lineto
closepath
stroke
newpath
0.0 0.0 0.0 setrgbcolor
grestore
showpage

%%EOF