%!PS-Adobe-3.0 EPSF-3.0
%%Creator: (MATLAB, The Mathworks, Inc. Version 8.6.0.267246 \(R2015b\). Operating System: Mac OS X)
%%Title: ../../papers_write/icassp1/pics/descentRandom-cohHist.eps
%%CreationDate: 2016-08-08T08:51:06
%%Pages: (atend)
%%BoundingBox:     0     0   617   432
%%LanguageLevel: 3
%%EndComments
%%BeginProlog
%%BeginResource: procset (Apache XML Graphics Std ProcSet) 1.2 0
%%Version: 1.2 0
%%Copyright: (Copyright 2001-2003,2010 The Apache Software Foundation. License terms: http://www.apache.org/licenses/LICENSE-2.0)
/bd{bind def}bind def
/ld{load def}bd
/GR/grestore ld
/M/moveto ld
/LJ/setlinejoin ld
/C/curveto ld
/f/fill ld
/LW/setlinewidth ld
/GC/setgray ld
/t/show ld
/N/newpath ld
/CT/concat ld
/cp/closepath ld
/S/stroke ld
/L/lineto ld
/CC/setcmykcolor ld
/A/ashow ld
/GS/gsave ld
/RC/setrgbcolor ld
/RM/rmoveto ld
/ML/setmiterlimit ld
/re {4 2 roll M
1 index 0 rlineto
0 exch rlineto
neg 0 rlineto
cp } bd
/_ctm matrix def
/_tm matrix def
/BT { _ctm currentmatrix pop matrix _tm copy pop 0 0 moveto } bd
/ET { _ctm setmatrix } bd
/iTm { _ctm setmatrix _tm concat } bd
/Tm { _tm astore pop iTm 0 0 moveto } bd
/ux 0.0 def
/uy 0.0 def
/F {
  /Tp exch def
  /Tf exch def
  Tf findfont Tp scalefont setfont
  /cf Tf def  /cs Tp def
} bd
/ULS {currentpoint /uy exch def /ux exch def} bd
/ULE {
  /Tcx currentpoint pop def
  gsave
  newpath
  cf findfont cs scalefont dup
  /FontMatrix get 0 get /Ts exch def /FontInfo get dup
  /UnderlinePosition get Ts mul /To exch def
  /UnderlineThickness get Ts mul /Tt exch def
  ux uy To add moveto  Tcx uy To add lineto
  Tt setlinewidth stroke
  grestore
} bd
/OLE {
  /Tcx currentpoint pop def
  gsave
  newpath
  cf findfont cs scalefont dup
  /FontMatrix get 0 get /Ts exch def /FontInfo get dup
  /UnderlinePosition get Ts mul /To exch def
  /UnderlineThickness get Ts mul /Tt exch def
  ux uy To add cs add moveto Tcx uy To add cs add lineto
  Tt setlinewidth stroke
  grestore
} bd
/SOE {
  /Tcx currentpoint pop def
  gsave
  newpath
  cf findfont cs scalefont dup
  /FontMatrix get 0 get /Ts exch def /FontInfo get dup
  /UnderlinePosition get Ts mul /To exch def
  /UnderlineThickness get Ts mul /Tt exch def
  ux uy To add cs 10 mul 26 idiv add moveto Tcx uy To add cs 10 mul 26 idiv add lineto
  Tt setlinewidth stroke
  grestore
} bd
/QT {
/Y22 exch store
/X22 exch store
/Y21 exch store
/X21 exch store
currentpoint
/Y21 load 2 mul add 3 div exch
/X21 load 2 mul add 3 div exch
/X21 load 2 mul /X22 load add 3 div
/Y21 load 2 mul /Y22 load add 3 div
/X22 load /Y22 load curveto
} bd
/SSPD {
dup length /d exch dict def
{
/v exch def
/k exch def
currentpagedevice k known {
/cpdv currentpagedevice k get def
v cpdv ne {
/upd false def
/nullv v type /nulltype eq def
/nullcpdv cpdv type /nulltype eq def
nullv nullcpdv or
{
/upd true def
} {
/sametype v type cpdv type eq def
sametype {
v type /arraytype eq {
/vlen v length def
/cpdvlen cpdv length def
vlen cpdvlen eq {
0 1 vlen 1 sub {
/i exch def
/obj v i get def
/cpdobj cpdv i get def
obj cpdobj ne {
/upd true def
exit
} if
} for
} {
/upd true def
} ifelse
} {
v type /dicttype eq {
v {
/dv exch def
/dk exch def
/cpddv cpdv dk get def
dv cpddv ne {
/upd true def
exit
} if
} forall
} {
/upd true def
} ifelse
} ifelse
} if
} ifelse
upd true eq {
d k v put
} if
} if
} if
} forall
d length 0 gt {
d setpagedevice
} if
} bd
%%EndResource
%%BeginResource: procset (Apache XML Graphics EPS ProcSet) 1.0 0
%%Version: 1.0 0
%%Copyright: (Copyright 2002-2003 The Apache Software Foundation. License terms: http://www.apache.org/licenses/LICENSE-2.0)
/BeginEPSF { %def
/b4_Inc_state save def         % Save state for cleanup
/dict_count countdictstack def % Count objects on dict stack
/op_count count 1 sub def      % Count objects on operand stack
userdict begin                 % Push userdict on dict stack
/showpage { } def              % Redefine showpage, { } = null proc
0 setgray 0 setlinecap         % Prepare graphics state
1 setlinewidth 0 setlinejoin
10 setmiterlimit [ ] 0 setdash newpath
/languagelevel where           % If level not equal to 1 then
{pop languagelevel             % set strokeadjust and
1 ne                           % overprint to their defaults.
{false setstrokeadjust false setoverprint
} if
} if
} bd
/EndEPSF { %def
count op_count sub {pop} repeat            % Clean up stacks
countdictstack dict_count sub {end} repeat
b4_Inc_state restore
} bd
%%EndResource
%FOPBeginFontDict
%%IncludeResource: font Courier-Bold
%%IncludeResource: font Helvetica
%%IncludeResource: font Courier-BoldOblique
%%IncludeResource: font Courier-Oblique
%%IncludeResource: font Times-Roman
%%IncludeResource: font Helvetica-BoldOblique
%%IncludeResource: font Helvetica-Bold
%%IncludeResource: font Helvetica-Oblique
%%IncludeResource: font Times-BoldItalic
%%IncludeResource: font Courier
%%IncludeResource: font Times-Italic
%%IncludeResource: font Times-Bold
%%IncludeResource: font Symbol
%%IncludeResource: font ZapfDingbats
%FOPEndFontDict
%%BeginResource: encoding WinAnsiEncoding
/WinAnsiEncoding [
/.notdef /.notdef /.notdef /.notdef /.notdef
/.notdef /.notdef /.notdef /.notdef /.notdef
/.notdef /.notdef /.notdef /.notdef /.notdef
/.notdef /.notdef /.notdef /.notdef /.notdef
/.notdef /.notdef /.notdef /.notdef /.notdef
/.notdef /.notdef /.notdef /.notdef /.notdef
/.notdef /.notdef /space /exclam /quotedbl
/numbersign /dollar /percent /ampersand /quotesingle
/parenleft /parenright /asterisk /plus /comma
/hyphen /period /slash /zero /one
/two /three /four /five /six
/seven /eight /nine /colon /semicolon
/less /equal /greater /question /at
/A /B /C /D /E
/F /G /H /I /J
/K /L /M /N /O
/P /Q /R /S /T
/U /V /W /X /Y
/Z /bracketleft /backslash /bracketright /asciicircum
/underscore /quoteleft /a /b /c
/d /e /f /g /h
/i /j /k /l /m
/n /o /p /q /r
/s /t /u /v /w
/x /y /z /braceleft /bar
/braceright /asciitilde /bullet /Euro /bullet
/quotesinglbase /florin /quotedblbase /ellipsis /dagger
/daggerdbl /circumflex /perthousand /Scaron /guilsinglleft
/OE /bullet /Zcaron /bullet /bullet
/quoteleft /quoteright /quotedblleft /quotedblright /bullet
/endash /emdash /asciitilde /trademark /scaron
/guilsinglright /oe /bullet /zcaron /Ydieresis
/space /exclamdown /cent /sterling /currency
/yen /brokenbar /section /dieresis /copyright
/ordfeminine /guillemotleft /logicalnot /sfthyphen /registered
/macron /degree /plusminus /twosuperior /threesuperior
/acute /mu /paragraph /middot /cedilla
/onesuperior /ordmasculine /guillemotright /onequarter /onehalf
/threequarters /questiondown /Agrave /Aacute /Acircumflex
/Atilde /Adieresis /Aring /AE /Ccedilla
/Egrave /Eacute /Ecircumflex /Edieresis /Igrave
/Iacute /Icircumflex /Idieresis /Eth /Ntilde
/Ograve /Oacute /Ocircumflex /Otilde /Odieresis
/multiply /Oslash /Ugrave /Uacute /Ucircumflex
/Udieresis /Yacute /Thorn /germandbls /agrave
/aacute /acircumflex /atilde /adieresis /aring
/ae /ccedilla /egrave /eacute /ecircumflex
/edieresis /igrave /iacute /icircumflex /idieresis
/eth /ntilde /ograve /oacute /ocircumflex
/otilde /odieresis /divide /oslash /ugrave
/uacute /ucircumflex /udieresis /yacute /thorn
/ydieresis
] def
%%EndResource
%FOPBeginFontReencode
/Courier-Bold findfont
dup length dict begin
  {1 index /FID ne {def} {pop pop} ifelse} forall
  /Encoding WinAnsiEncoding def
  currentdict
end
/Courier-Bold exch definefont pop
/Helvetica findfont
dup length dict begin
  {1 index /FID ne {def} {pop pop} ifelse} forall
  /Encoding WinAnsiEncoding def
  currentdict
end
/Helvetica exch definefont pop
/Courier-BoldOblique findfont
dup length dict begin
  {1 index /FID ne {def} {pop pop} ifelse} forall
  /Encoding WinAnsiEncoding def
  currentdict
end
/Courier-BoldOblique exch definefont pop
/Courier-Oblique findfont
dup length dict begin
  {1 index /FID ne {def} {pop pop} ifelse} forall
  /Encoding WinAnsiEncoding def
  currentdict
end
/Courier-Oblique exch definefont pop
/Times-Roman findfont
dup length dict begin
  {1 index /FID ne {def} {pop pop} ifelse} forall
  /Encoding WinAnsiEncoding def
  currentdict
end
/Times-Roman exch definefont pop
/Helvetica-BoldOblique findfont
dup length dict begin
  {1 index /FID ne {def} {pop pop} ifelse} forall
  /Encoding WinAnsiEncoding def
  currentdict
end
/Helvetica-BoldOblique exch definefont pop
/Helvetica-Bold findfont
dup length dict begin
  {1 index /FID ne {def} {pop pop} ifelse} forall
  /Encoding WinAnsiEncoding def
  currentdict
end
/Helvetica-Bold exch definefont pop
/Helvetica-Oblique findfont
dup length dict begin
  {1 index /FID ne {def} {pop pop} ifelse} forall
  /Encoding WinAnsiEncoding def
  currentdict
end
/Helvetica-Oblique exch definefont pop
/Times-BoldItalic findfont
dup length dict begin
  {1 index /FID ne {def} {pop pop} ifelse} forall
  /Encoding WinAnsiEncoding def
  currentdict
end
/Times-BoldItalic exch definefont pop
/Courier findfont
dup length dict begin
  {1 index /FID ne {def} {pop pop} ifelse} forall
  /Encoding WinAnsiEncoding def
  currentdict
end
/Courier exch definefont pop
/Times-Italic findfont
dup length dict begin
  {1 index /FID ne {def} {pop pop} ifelse} forall
  /Encoding WinAnsiEncoding def
  currentdict
end
/Times-Italic exch definefont pop
/Times-Bold findfont
dup length dict begin
  {1 index /FID ne {def} {pop pop} ifelse} forall
  /Encoding WinAnsiEncoding def
  currentdict
end
/Times-Bold exch definefont pop
%FOPEndFontReencode
%%EndProlog
%%Page: 1 1
%%PageBoundingBox: 0 0 576 432
%%BeginPageSetup
[1 0 0 -1 0 432] CT
%%EndPageSetup
GS
1 GC
N
0 0 576 432 re
f
GR
GS
1 GC
N
0 0 576 432 re
f
GR
GS
1 GC
N
103 335 M
521 335 L
521 56 L
103 56 L
cp
f
GR
GS
0.149 GC
2 setlinecap
1 LJ
0.5 LW
N
103 335 M
521 335 L
S
GR
GS
0.149 GC
2 setlinecap
1 LJ
0.5 LW
N
103 56 M
521 56 L
S
GR
GS
0.149 GC
2 setlinecap
1 LJ
0.5 LW
N
103 335 M
103 330.82 L
S
GR
GS
0.149 GC
2 setlinecap
1 LJ
0.5 LW
N
242.333 335 M
242.333 330.82 L
S
GR
GS
0.149 GC
2 setlinecap
1 LJ
0.5 LW
N
381.666 335 M
381.666 330.82 L
S
GR
GS
0.149 GC
2 setlinecap
1 LJ
0.5 LW
N
521 335 M
521 330.82 L
S
GR
GS
0.149 GC
2 setlinecap
1 LJ
0.5 LW
N
103 56 M
103 60.18 L
S
GR
GS
0.149 GC
2 setlinecap
1 LJ
0.5 LW
N
242.333 56 M
242.333 60.18 L
S
GR
GS
0.149 GC
2 setlinecap
1 LJ
0.5 LW
N
381.666 56 M
381.666 60.18 L
S
GR
GS
0.149 GC
2 setlinecap
1 LJ
0.5 LW
N
521 56 M
521 60.18 L
S
GR
GS
[1 0 0 1 103.00008 345] CT
0.149 GC
/Helvetica 40 F
GS
[1 0 0 1 0 0] CT
-28 31 moveto 
1 -1 scale
(0.8) t 
GR
GR
GS
[1 0 0 1 242.33328 345] CT
0.149 GC
/Helvetica 40 F
GS
[1 0 0 1 0 0] CT
-39 31 moveto 
1 -1 scale
(0.82) t 
GR
GR
GS
[1 0 0 1 381.66647 345] CT
0.149 GC
/Helvetica 40 F
GS
[1 0 0 1 0 0] CT
-39 31 moveto 
1 -1 scale
(0.84) t 
GR
GR
GS
[1 0 0 1 521.00012 345] CT
0.149 GC
/Helvetica 40 F
GS
[1 0 0 1 0 0] CT
-39 31 moveto 
1 -1 scale
(0.86) t 
GR
GR
GS
[1 0 0 1 312.00031 387] CT
0.149 GC
/Helvetica 44 F
GS
[1 0 0 1 0 0] CT
-166.5 34 moveto 
1 -1 scale
(Coherence value) t 
GR
GR
GS
0.149 GC
2 setlinecap
1 LJ
0.5 LW
N
103 335 M
103 56 L
S
GR
GS
0.149 GC
2 setlinecap
1 LJ
0.5 LW
N
521 335 M
521 56 L
S
GR
GS
0.149 GC
2 setlinecap
1 LJ
0.5 LW
N
103 335 M
107.18 335 L
S
GR
GS
0.149 GC
2 setlinecap
1 LJ
0.5 LW
N
103 195.5 M
107.18 195.5 L
S
GR
GS
0.149 GC
2 setlinecap
1 LJ
0.5 LW
N
103 56 M
107.18 56 L
S
GR
GS
0.149 GC
2 setlinecap
1 LJ
0.5 LW
N
521 335 M
516.82 335 L
S
GR
GS
0.149 GC
2 setlinecap
1 LJ
0.5 LW
N
521 195.5 M
516.82 195.5 L
S
GR
GS
0.149 GC
2 setlinecap
1 LJ
0.5 LW
N
521 56 M
516.82 56 L
S
GR
GS
[1 0 0 1 93.00014 335] CT
0.149 GC
/Helvetica 40 F
GS
[1 0 0 1 0 0] CT
-23 10.5 moveto 
1 -1 scale
(0) t 
GR
GR
GS
[1 0 0 1 93.00014 195.5] CT
0.149 GC
/Helvetica 40 F
GS
[1 0 0 1 0 0] CT
-45 10.5 moveto 
1 -1 scale
(10) t 
GR
GR
GS
[1 0 0 1 93.00014 56] CT
0.149 GC
/Helvetica 40 F
GS
[1 0 0 1 0 0] CT
-45 10.5 moveto 
1 -1 scale
(20) t 
GR
GR
GS
[0 -1 1 0 45.00023 195.49986] CT
0.149 GC
/Helvetica 44 F
GS
[1 0 0 1 0 0] CT
-104 -11 moveto 
1 -1 scale
(Frequency) t 
GR
GR
GS
[1 0 0 1 312.00031 45] CT
/Helvetica-Bold 44 F
GS
[1 0 0 1 0 0] CT
-304.5 -11 moveto 
1 -1 scale
(Circularly shifted histograms) t 
GR
GR
GS
0.4 0.668 0.845 RC
N
103 335 M
103 279.2 L
172.667 279.2 L
172.667 335 L
cp
f
GR
GS
0.4 0.668 0.845 RC
N
172.667 335 M
172.667 279.2 L
242.333 279.2 L
242.333 335 L
cp
f
GR
GS
0.4 0.668 0.845 RC
N
242.333 335 M
242.333 56 L
312 56 L
312 335 L
cp
f
GR
GS
0.4 0.668 0.845 RC
N
312 335 M
312 111.8 L
381.666 111.8 L
381.666 335 L
cp
f
GR
GS
0.4 0.668 0.845 RC
N
381.666 335 M
381.666 56 L
451.333 56 L
451.333 335 L
cp
f
GR
GS
1 LJ
0.5 LW
N
103 335 M
103 279.2 L
172.667 279.2 L
172.667 335 L
172.667 335 L
S
GR
GS
1 LJ
0.5 LW
N
172.667 279.2 M
242.333 279.2 L
S
GR
GS
1 LJ
0.5 LW
N
242.333 335 M
242.333 335 L
242.333 56 L
312 56 L
312 335 L
312 335 L
S
GR
GS
1 LJ
0.5 LW
N
312 111.8 M
381.666 111.8 L
S
GR
GS
1 LJ
0.5 LW
N
381.666 335 M
381.666 335 L
381.666 56 L
451.333 56 L
451.333 335 L
S
GR
%%Trailer
%%Pages: 1
%%EOF
