0.525449 <- 0.7991
phi_1:
0.834306 
0.649295 
0.913135 
0.500000 
2.056008 
0.500000 
0.500000 
2.551560 
0.500000 
0.500000 
0.502771 
1.236640 
2.432529 
1.710049 
3.003439 
1.122445 
0.500000 
1.337569 
2.264698 
1.785820 
3.096169 
1.632180 
0.500000 
0.500000 
0.715134 
phi_2:
0.944702 
1.719535 
0.639465 
2.845098 
0.500000 
1.539884 
3.016583 
0.500000 
0.848950 
2.755810 
1.263384 
0.947276 
0.500000 
0.500000 
0.500000 
1.618442 
1.641072 
0.500000 
0.500000 
0.500000 
0.500000 
0.500000 
2.365332 
2.033559 
0.773355 
