0.453496 
phi_1:
0.500000 
0.600286 
0.806451 
0.704765 
0.500000 
0.649199 
0.500000 
0.500000 
0.500000 
1.112867 
0.500000 
0.878749 
0.644507 
0.500000 
0.500000 
0.500000 
1.180374 
0.872738 
0.500000 
1.260039 
0.500000 
0.500000 
0.500000 
0.560596 
0.500000 
0.500000 
0.809001 
0.500000 
0.500000 
0.733774 
1.064259 
0.893483 
0.500000 
0.963161 
0.500000 
0.620929 
0.916623 
0.500000 
0.993864 
0.835308 
0.500000 
0.714328 
0.500000 
0.500000 
0.906275 
0.691493 
0.500000 
0.500000 
0.500000 
1.070598 
0.500000 
0.500000 
1.083038 
0.500000 
0.500000 
0.878196 
0.976870 
0.603965 
0.500000 
1.177494 
0.500000 
1.138815 
0.500000 
0.671744 
phi_2:
1.047503 
0.500000 
0.500000 
0.500000 
0.564254 
0.500000 
1.012305 
1.100611 
0.977471 
0.500000 
0.500000 
0.500000 
0.866365 
0.589788 
0.500000 
0.642382 
0.500000 
0.500000 
0.593535 
0.500000 
0.500000 
0.787593 
0.576213 
0.500000 
0.500000 
0.926274 
0.500000 
1.375227 
0.799281 
0.502728 
0.500000 
0.500000 
0.967466 
0.500000 
0.500000 
0.654565 
0.500000 
0.532907 
0.500000 
0.500000 
0.757812 
0.680619 
1.086414 
1.293750 
0.500000 
0.500000 
1.070426 
0.500000 
0.873639 
0.500000 
0.550063 
0.500000 
0.500000 
1.376971 
1.185878 
0.505652 
0.500000 
0.500000 
0.745169 
0.500000 
1.042217 
0.500000 
0.500000 
0.822243 
