1.005996 
phi_1:
0.593054 
0.590397 
0.592758 
0.592113 
0.591768 
0.591159 
0.592365 
0.595402 
0.593239 
0.592318 
0.592738 
0.593295 
0.591481 
0.591706 
0.591311 
0.592139 
phi_2:
0.721765 
0.724035 
0.722858 
0.722037 
0.719647 
0.721138 
0.720766 
0.720035 
0.720356 
0.722034 
0.721328 
0.721496 
0.721020 
0.725793 
0.725313 
0.720250 
