%!PS-Adobe-3.0 EPSF-3.0
%%Creator: (MATLAB, The Mathworks, Inc. Version 8.6.0.267246 \(R2015b\). Operating System: Mac OS X)
%%Title: /Users/aloo/coded-sourcesep/papers_write/icassp1/sims/descent/cohDist.eps
%%CreationDate: 2016-09-02T21:42:25
%%Pages: (atend)
%%BoundingBox: 0 0 1440 800
%%LanguageLevel: 2
%%EndComments
%%BeginProlog
%%BeginResource: procset (Apache XML Graphics Std ProcSet) 1.2 0
%%Version: 1.2 0
%%Copyright: (Copyright 2001-2003,2010 The Apache Software Foundation. License terms: http://www.apache.org/licenses/LICENSE-2.0)
/bd{bind def}bind def
/ld{load def}bd
/GR/grestore ld
/M/moveto ld
/LJ/setlinejoin ld
/C/curveto ld
/f/fill ld
/LW/setlinewidth ld
/GC/setgray ld
/t/show ld
/N/newpath ld
/CT/concat ld
/cp/closepath ld
/S/stroke ld
/L/lineto ld
/CC/setcmykcolor ld
/A/ashow ld
/GS/gsave ld
/RC/setrgbcolor ld
/RM/rmoveto ld
/ML/setmiterlimit ld
/re {4 2 roll M
1 index 0 rlineto
0 exch rlineto
neg 0 rlineto
cp } bd
/_ctm matrix def
/_tm matrix def
/BT { _ctm currentmatrix pop matrix _tm copy pop 0 0 moveto } bd
/ET { _ctm setmatrix } bd
/iTm { _ctm setmatrix _tm concat } bd
/Tm { _tm astore pop iTm 0 0 moveto } bd
/ux 0.0 def
/uy 0.0 def
/F {
  /Tp exch def
  /Tf exch def
  Tf findfont Tp scalefont setfont
  /cf Tf def  /cs Tp def
} bd
/ULS {currentpoint /uy exch def /ux exch def} bd
/ULE {
  /Tcx currentpoint pop def
  gsave
  newpath
  cf findfont cs scalefont dup
  /FontMatrix get 0 get /Ts exch def /FontInfo get dup
  /UnderlinePosition get Ts mul /To exch def
  /UnderlineThickness get Ts mul /Tt exch def
  ux uy To add moveto  Tcx uy To add lineto
  Tt setlinewidth stroke
  grestore
} bd
/OLE {
  /Tcx currentpoint pop def
  gsave
  newpath
  cf findfont cs scalefont dup
  /FontMatrix get 0 get /Ts exch def /FontInfo get dup
  /UnderlinePosition get Ts mul /To exch def
  /UnderlineThickness get Ts mul /Tt exch def
  ux uy To add cs add moveto Tcx uy To add cs add lineto
  Tt setlinewidth stroke
  grestore
} bd
/SOE {
  /Tcx currentpoint pop def
  gsave
  newpath
  cf findfont cs scalefont dup
  /FontMatrix get 0 get /Ts exch def /FontInfo get dup
  /UnderlinePosition get Ts mul /To exch def
  /UnderlineThickness get Ts mul /Tt exch def
  ux uy To add cs 10 mul 26 idiv add moveto Tcx uy To add cs 10 mul 26 idiv add lineto
  Tt setlinewidth stroke
  grestore
} bd
/QT {
/Y22 exch store
/X22 exch store
/Y21 exch store
/X21 exch store
currentpoint
/Y21 load 2 mul add 3 div exch
/X21 load 2 mul add 3 div exch
/X21 load 2 mul /X22 load add 3 div
/Y21 load 2 mul /Y22 load add 3 div
/X22 load /Y22 load curveto
} bd
/SSPD {
dup length /d exch dict def
{
/v exch def
/k exch def
currentpagedevice k known {
/cpdv currentpagedevice k get def
v cpdv ne {
/upd false def
/nullv v type /nulltype eq def
/nullcpdv cpdv type /nulltype eq def
nullv nullcpdv or
{
/upd true def
} {
/sametype v type cpdv type eq def
sametype {
v type /arraytype eq {
/vlen v length def
/cpdvlen cpdv length def
vlen cpdvlen eq {
0 1 vlen 1 sub {
/i exch def
/obj v i get def
/cpdobj cpdv i get def
obj cpdobj ne {
/upd true def
exit
} if
} for
} {
/upd true def
} ifelse
} {
v type /dicttype eq {
v {
/dv exch def
/dk exch def
/cpddv cpdv dk get def
dv cpddv ne {
/upd true def
exit
} if
} forall
} {
/upd true def
} ifelse
} ifelse
} if
} ifelse
upd true eq {
d k v put
} if
} if
} if
} forall
d length 0 gt {
d setpagedevice
} if
} bd
%%EndResource
%%BeginResource: procset (Apache XML Graphics EPS ProcSet) 1.0 0
%%Version: 1.0 0
%%Copyright: (Copyright 2002-2003 The Apache Software Foundation. License terms: http://www.apache.org/licenses/LICENSE-2.0)
/BeginEPSF { %def
/b4_Inc_state save def         % Save state for cleanup
/dict_count countdictstack def % Count objects on dict stack
/op_count count 1 sub def      % Count objects on operand stack
userdict begin                 % Push userdict on dict stack
/showpage { } def              % Redefine showpage, { } = null proc
0 setgray 0 setlinecap         % Prepare graphics state
1 setlinewidth 0 setlinejoin
10 setmiterlimit [ ] 0 setdash newpath
/languagelevel where           % If level not equal to 1 then
{pop languagelevel             % set strokeadjust and
1 ne                           % overprint to their defaults.
{false setstrokeadjust false setoverprint
} if
} if
} bd
/EndEPSF { %def
count op_count sub {pop} repeat            % Clean up stacks
countdictstack dict_count sub {end} repeat
b4_Inc_state restore
} bd
%%EndResource
%FOPBeginFontDict
%%IncludeResource: font Courier-Bold
%%IncludeResource: font Helvetica
%%IncludeResource: font Courier-BoldOblique
%%IncludeResource: font Courier-Oblique
%%IncludeResource: font Times-Roman
%%IncludeResource: font Helvetica-BoldOblique
%%IncludeResource: font Helvetica-Bold
%%IncludeResource: font Helvetica-Oblique
%%IncludeResource: font Times-BoldItalic
%%IncludeResource: font Courier
%%IncludeResource: font Times-Italic
%%IncludeResource: font Times-Bold
%%IncludeResource: font Symbol
%%IncludeResource: font ZapfDingbats
%FOPEndFontDict
%%BeginResource: encoding WinAnsiEncoding
/WinAnsiEncoding [
/.notdef /.notdef /.notdef /.notdef /.notdef
/.notdef /.notdef /.notdef /.notdef /.notdef
/.notdef /.notdef /.notdef /.notdef /.notdef
/.notdef /.notdef /.notdef /.notdef /.notdef
/.notdef /.notdef /.notdef /.notdef /.notdef
/.notdef /.notdef /.notdef /.notdef /.notdef
/.notdef /.notdef /space /exclam /quotedbl
/numbersign /dollar /percent /ampersand /quotesingle
/parenleft /parenright /asterisk /plus /comma
/hyphen /period /slash /zero /one
/two /three /four /five /six
/seven /eight /nine /colon /semicolon
/less /equal /greater /question /at
/A /B /C /D /E
/F /G /H /I /J
/K /L /M /N /O
/P /Q /R /S /T
/U /V /W /X /Y
/Z /bracketleft /backslash /bracketright /asciicircum
/underscore /quoteleft /a /b /c
/d /e /f /g /h
/i /j /k /l /m
/n /o /p /q /r
/s /t /u /v /w
/x /y /z /braceleft /bar
/braceright /asciitilde /bullet /Euro /bullet
/quotesinglbase /florin /quotedblbase /ellipsis /dagger
/daggerdbl /circumflex /perthousand /Scaron /guilsinglleft
/OE /bullet /Zcaron /bullet /bullet
/quoteleft /quoteright /quotedblleft /quotedblright /bullet
/endash /emdash /asciitilde /trademark /scaron
/guilsinglright /oe /bullet /zcaron /Ydieresis
/space /exclamdown /cent /sterling /currency
/yen /brokenbar /section /dieresis /copyright
/ordfeminine /guillemotleft /logicalnot /sfthyphen /registered
/macron /degree /plusminus /twosuperior /threesuperior
/acute /mu /paragraph /middot /cedilla
/onesuperior /ordmasculine /guillemotright /onequarter /onehalf
/threequarters /questiondown /Agrave /Aacute /Acircumflex
/Atilde /Adieresis /Aring /AE /Ccedilla
/Egrave /Eacute /Ecircumflex /Edieresis /Igrave
/Iacute /Icircumflex /Idieresis /Eth /Ntilde
/Ograve /Oacute /Ocircumflex /Otilde /Odieresis
/multiply /Oslash /Ugrave /Uacute /Ucircumflex
/Udieresis /Yacute /Thorn /germandbls /agrave
/aacute /acircumflex /atilde /adieresis /aring
/ae /ccedilla /egrave /eacute /ecircumflex
/edieresis /igrave /iacute /icircumflex /idieresis
/eth /ntilde /ograve /oacute /ocircumflex
/otilde /odieresis /divide /oslash /ugrave
/uacute /ucircumflex /udieresis /yacute /thorn
/ydieresis
] def
%%EndResource
%FOPBeginFontReencode
/Courier-Bold findfont
dup length dict begin
  {1 index /FID ne {def} {pop pop} ifelse} forall
  /Encoding WinAnsiEncoding def
  currentdict
end
/Courier-Bold exch definefont pop
/Helvetica findfont
dup length dict begin
  {1 index /FID ne {def} {pop pop} ifelse} forall
  /Encoding WinAnsiEncoding def
  currentdict
end
/Helvetica exch definefont pop
/Courier-BoldOblique findfont
dup length dict begin
  {1 index /FID ne {def} {pop pop} ifelse} forall
  /Encoding WinAnsiEncoding def
  currentdict
end
/Courier-BoldOblique exch definefont pop
/Courier-Oblique findfont
dup length dict begin
  {1 index /FID ne {def} {pop pop} ifelse} forall
  /Encoding WinAnsiEncoding def
  currentdict
end
/Courier-Oblique exch definefont pop
/Times-Roman findfont
dup length dict begin
  {1 index /FID ne {def} {pop pop} ifelse} forall
  /Encoding WinAnsiEncoding def
  currentdict
end
/Times-Roman exch definefont pop
/Helvetica-BoldOblique findfont
dup length dict begin
  {1 index /FID ne {def} {pop pop} ifelse} forall
  /Encoding WinAnsiEncoding def
  currentdict
end
/Helvetica-BoldOblique exch definefont pop
/Helvetica-Bold findfont
dup length dict begin
  {1 index /FID ne {def} {pop pop} ifelse} forall
  /Encoding WinAnsiEncoding def
  currentdict
end
/Helvetica-Bold exch definefont pop
/Helvetica-Oblique findfont
dup length dict begin
  {1 index /FID ne {def} {pop pop} ifelse} forall
  /Encoding WinAnsiEncoding def
  currentdict
end
/Helvetica-Oblique exch definefont pop
/Times-BoldItalic findfont
dup length dict begin
  {1 index /FID ne {def} {pop pop} ifelse} forall
  /Encoding WinAnsiEncoding def
  currentdict
end
/Times-BoldItalic exch definefont pop
/Courier findfont
dup length dict begin
  {1 index /FID ne {def} {pop pop} ifelse} forall
  /Encoding WinAnsiEncoding def
  currentdict
end
/Courier exch definefont pop
/Times-Italic findfont
dup length dict begin
  {1 index /FID ne {def} {pop pop} ifelse} forall
  /Encoding WinAnsiEncoding def
  currentdict
end
/Times-Italic exch definefont pop
/Times-Bold findfont
dup length dict begin
  {1 index /FID ne {def} {pop pop} ifelse} forall
  /Encoding WinAnsiEncoding def
  currentdict
end
/Times-Bold exch definefont pop
%FOPEndFontReencode
%%EndProlog
%%Page: 1 1
%%PageBoundingBox: 0 0 1440 800
%%BeginPageSetup
[1 0 0 -1 0 800] CT
%%EndPageSetup
GS
1 GC
N
0 0 1440 800 re
f
GR
GS
1 GC
N
0 0 1440 800 re
f
GR
GS
1 GC
N
187 703 M
1303 703 L
1303 60 L
187 60 L
cp
f
GR
GS
0.149 GC
2 setlinecap
1 LJ
0.5 LW
N
187 703 M
1303 703 L
S
GR
GS
0.149 GC
2 setlinecap
1 LJ
0.5 LW
N
187 60 M
1303 60 L
S
GR
GS
0.149 GC
2 setlinecap
1 LJ
0.5 LW
N
249 703 M
249 691.84 L
S
GR
GS
0.149 GC
2 setlinecap
1 LJ
0.5 LW
N
373 703 M
373 691.84 L
S
GR
GS
0.149 GC
2 setlinecap
1 LJ
0.5 LW
N
497 703 M
497 691.84 L
S
GR
GS
0.149 GC
2 setlinecap
1 LJ
0.5 LW
N
621 703 M
621 691.84 L
S
GR
GS
0.149 GC
2 setlinecap
1 LJ
0.5 LW
N
745 703 M
745 691.84 L
S
GR
GS
0.149 GC
2 setlinecap
1 LJ
0.5 LW
N
869 703 M
869 691.84 L
S
GR
GS
0.149 GC
2 setlinecap
1 LJ
0.5 LW
N
993 703 M
993 691.84 L
S
GR
GS
0.149 GC
2 setlinecap
1 LJ
0.5 LW
N
1117 703 M
1117 691.84 L
S
GR
GS
0.149 GC
2 setlinecap
1 LJ
0.5 LW
N
1241 703 M
1241 691.84 L
S
GR
GS
0.149 GC
2 setlinecap
1 LJ
0.5 LW
N
249 60 M
249 71.16 L
S
GR
GS
0.149 GC
2 setlinecap
1 LJ
0.5 LW
N
373 60 M
373 71.16 L
S
GR
GS
0.149 GC
2 setlinecap
1 LJ
0.5 LW
N
497 60 M
497 71.16 L
S
GR
GS
0.149 GC
2 setlinecap
1 LJ
0.5 LW
N
621 60 M
621 71.16 L
S
GR
GS
0.149 GC
2 setlinecap
1 LJ
0.5 LW
N
745 60 M
745 71.16 L
S
GR
GS
0.149 GC
2 setlinecap
1 LJ
0.5 LW
N
869 60 M
869 71.16 L
S
GR
GS
0.149 GC
2 setlinecap
1 LJ
0.5 LW
N
993 60 M
993 71.16 L
S
GR
GS
0.149 GC
2 setlinecap
1 LJ
0.5 LW
N
1117 60 M
1117 71.16 L
S
GR
GS
0.149 GC
2 setlinecap
1 LJ
0.5 LW
N
1241 60 M
1241 71.16 L
S
GR
GS
[1 0 0 1 249 713] CT
0.149 GC
/Helvetica 40 F
GS
[1 0 0 1 0 0] CT
-11.5 31 moveto 
1 -1 scale
(2) t 
GR
GR
GS
[1 0 0 1 373 713] CT
0.149 GC
/Helvetica 40 F
GS
[1 0 0 1 0 0] CT
-11.5 31 moveto 
1 -1 scale
(3) t 
GR
GR
GS
[1 0 0 1 497 713] CT
0.149 GC
/Helvetica 40 F
GS
[1 0 0 1 0 0] CT
-11.5 31 moveto 
1 -1 scale
(4) t 
GR
GR
GS
[1 0 0 1 621 713] CT
0.149 GC
/Helvetica 40 F
GS
[1 0 0 1 0 0] CT
-11.5 31 moveto 
1 -1 scale
(5) t 
GR
GR
GS
[1 0 0 1 745 713] CT
0.149 GC
/Helvetica 40 F
GS
[1 0 0 1 0 0] CT
-11.5 31 moveto 
1 -1 scale
(6) t 
GR
GR
GS
[1 0 0 1 869 713] CT
0.149 GC
/Helvetica 40 F
GS
[1 0 0 1 0 0] CT
-11.5 31 moveto 
1 -1 scale
(7) t 
GR
GR
GS
[1 0 0 1 993 713] CT
0.149 GC
/Helvetica 40 F
GS
[1 0 0 1 0 0] CT
-11.5 31 moveto 
1 -1 scale
(8) t 
GR
GR
GS
[1 0 0 1 1117 713] CT
0.149 GC
/Helvetica 40 F
GS
[1 0 0 1 0 0] CT
-11.5 31 moveto 
1 -1 scale
(9) t 
GR
GR
GS
[1 0 0 1 1241 713] CT
0.149 GC
/Helvetica 40 F
GS
[1 0 0 1 0 0] CT
-22.5 31 moveto 
1 -1 scale
(10) t 
GR
GR
GS
[1 0 0 1 745.00055 755] CT
0.149 GC
/Helvetica 44 F
GS
[1 0 0 1 0 0] CT
-13.5 34 moveto 
1 -1 scale
(T) t 
GR
GR
GS
0.149 GC
2 setlinecap
1 LJ
0.5 LW
N
187 703 M
187 60 L
S
GR
GS
0.149 GC
2 setlinecap
1 LJ
0.5 LW
N
1303 703 M
1303 60 L
S
GR
GS
0.149 GC
2 setlinecap
1 LJ
0.5 LW
N
187 600.648 M
198.16 600.648 L
S
GR
GS
0.149 GC
2 setlinecap
1 LJ
0.5 LW
N
187 467.627 M
198.16 467.627 L
S
GR
GS
0.149 GC
2 setlinecap
1 LJ
0.5 LW
N
187 334.606 M
198.16 334.606 L
S
GR
GS
0.149 GC
2 setlinecap
1 LJ
0.5 LW
N
187 201.586 M
198.16 201.586 L
S
GR
GS
0.149 GC
2 setlinecap
1 LJ
0.5 LW
N
187 68.565 M
198.16 68.565 L
S
GR
GS
0.149 GC
2 setlinecap
1 LJ
0.5 LW
N
1303 600.648 M
1291.84 600.648 L
S
GR
GS
0.149 GC
2 setlinecap
1 LJ
0.5 LW
N
1303 467.627 M
1291.84 467.627 L
S
GR
GS
0.149 GC
2 setlinecap
1 LJ
0.5 LW
N
1303 334.606 M
1291.84 334.606 L
S
GR
GS
0.149 GC
2 setlinecap
1 LJ
0.5 LW
N
1303 201.586 M
1291.84 201.586 L
S
GR
GS
0.149 GC
2 setlinecap
1 LJ
0.5 LW
N
1303 68.565 M
1291.84 68.565 L
S
GR
GS
[1 0 0 1 177 600.64813] CT
0.149 GC
/Helvetica 40 F
GS
[1 0 0 1 0 0] CT
-78 10.5 moveto 
1 -1 scale
(0.75) t 
GR
GR
GS
[1 0 0 1 177 467.62729] CT
0.149 GC
/Helvetica 40 F
GS
[1 0 0 1 0 0] CT
-56 10.5 moveto 
1 -1 scale
(0.8) t 
GR
GR
GS
[1 0 0 1 177 334.60638] CT
0.149 GC
/Helvetica 40 F
GS
[1 0 0 1 0 0] CT
-78 10.5 moveto 
1 -1 scale
(0.85) t 
GR
GR
GS
[1 0 0 1 177 201.58566] CT
0.149 GC
/Helvetica 40 F
GS
[1 0 0 1 0 0] CT
-56 10.5 moveto 
1 -1 scale
(0.9) t 
GR
GR
GS
[1 0 0 1 177 68.56477] CT
0.149 GC
/Helvetica 40 F
GS
[1 0 0 1 0 0] CT
-78 10.5 moveto 
1 -1 scale
(0.95) t 
GR
GR
GS
[0 -1 1 0 96 381.49982] CT
0.149 GC
/Helvetica 44 F
GS
[1 0 0 1 0 0] CT
-108 -11 moveto 
1 -1 scale
(Coherence) t 
GR
GR
GS
[1 0 0 1 745.00073 49.00001] CT
/Helvetica-Bold 44 F
GS
[1 0 0 1 0 0] CT
-522 -11 moveto 
1 -1 scale
(Coherence distribution for positive random codes) t 
GR
GR
GS
[12 12] 0 setdash
2 LJ
3 LW
N
249 313.941 M
249 144.152 L
S
GR
GS
[12 12] 0 setdash
2 LJ
3 LW
N
373 265.13 M
373 156.757 L
S
GR
GS
[12 12] 0 setdash
2 LJ
3 LW
N
497 225.952 M
497 121.661 L
S
GR
GS
[12 12] 0 setdash
2 LJ
3 LW
N
621 216.954 M
621 125.248 L
S
GR
GS
[12 12] 0 setdash
2 LJ
3 LW
N
745 201.313 M
745 117.197 L
S
GR
GS
[12 12] 0 setdash
2 LJ
3 LW
N
869 193.953 M
869 119.916 L
S
GR
GS
[12 12] 0 setdash
2 LJ
3 LW
N
993 189.577 M
993 119.262 L
S
GR
GS
[12 12] 0 setdash
2 LJ
3 LW
N
1117 183.286 M
1117 111.709 L
S
GR
GS
[12 12] 0 setdash
2 LJ
3 LW
N
1241 176.632 M
1241 114.994 L
S
GR
GS
[12 12] 0 setdash
2 LJ
3 LW
N
249 636.726 M
249 445.811 L
S
GR
GS
[12 12] 0 setdash
2 LJ
3 LW
N
373 446.618 M
373 338.697 L
S
GR
GS
[12 12] 0 setdash
2 LJ
3 LW
N
497 413.663 M
497 308 L
S
GR
GS
[12 12] 0 setdash
2 LJ
3 LW
N
621 370.466 M
621 278.778 L
S
GR
GS
[12 12] 0 setdash
2 LJ
3 LW
N
745 339.917 M
745 259.751 L
S
GR
GS
[12 12] 0 setdash
2 LJ
3 LW
N
869 325.498 M
869 246.658 L
S
GR
GS
[12 12] 0 setdash
2 LJ
3 LW
N
993 316.889 M
993 240.738 L
S
GR
GS
[12 12] 0 setdash
2 LJ
3 LW
N
1117 296.158 M
1117 231.183 L
S
GR
GS
[12 12] 0 setdash
2 LJ
3 LW
N
1241 286.296 M
1241 223.663 L
S
GR
GS
1 LJ
3 LW
N
233.5 144.152 M
264.5 144.152 L
S
GR
GS
1 LJ
3 LW
N
357.5 156.757 M
388.5 156.757 L
S
GR
GS
1 LJ
3 LW
N
481.5 121.661 M
512.5 121.661 L
S
GR
GS
1 LJ
3 LW
N
605.5 125.248 M
636.5 125.248 L
S
GR
GS
1 LJ
3 LW
N
729.5 117.197 M
760.5 117.197 L
S
GR
GS
1 LJ
3 LW
N
853.5 119.916 M
884.5 119.916 L
S
GR
GS
1 LJ
3 LW
N
977.5 119.262 M
1008.5 119.262 L
S
GR
GS
1 LJ
3 LW
N
1101.5 111.709 M
1132.5 111.709 L
S
GR
GS
1 LJ
3 LW
N
1225.5 114.994 M
1256.5 114.994 L
S
GR
GS
1 LJ
3 LW
N
233.5 636.726 M
264.5 636.726 L
S
GR
GS
1 LJ
3 LW
N
357.5 446.618 M
388.5 446.618 L
S
GR
GS
1 LJ
3 LW
N
481.5 413.663 M
512.5 413.663 L
S
GR
GS
1 LJ
3 LW
N
605.5 370.466 M
636.5 370.466 L
S
GR
GS
1 LJ
3 LW
N
729.5 339.917 M
760.5 339.917 L
S
GR
GS
1 LJ
3 LW
N
853.5 325.498 M
884.5 325.498 L
S
GR
GS
1 LJ
3 LW
N
977.5 316.889 M
1008.5 316.889 L
S
GR
GS
1 LJ
3 LW
N
1101.5 296.158 M
1132.5 296.158 L
S
GR
GS
1 LJ
3 LW
N
1225.5 286.296 M
1256.5 286.296 L
S
GR
GS
0 0 1 RC
1 LJ
3 LW
N
218 445.811 M
218 313.941 L
280 313.941 L
280 445.811 L
218 445.811 L
S
GR
GS
0 0 1 RC
1 LJ
3 LW
N
342 338.697 M
342 265.13 L
404 265.13 L
404 338.697 L
342 338.697 L
S
GR
GS
0 0 1 RC
1 LJ
3 LW
N
466 308 M
466 225.952 L
528 225.952 L
528 308 L
466 308 L
S
GR
GS
0 0 1 RC
1 LJ
3 LW
N
590 278.778 M
590 216.954 L
652 216.954 L
652 278.778 L
590 278.778 L
S
GR
GS
0 0 1 RC
1 LJ
3 LW
N
714 259.751 M
714 201.313 L
776 201.313 L
776 259.751 L
714 259.751 L
S
GR
GS
0 0 1 RC
1 LJ
3 LW
N
838 246.658 M
838 193.953 L
900 193.953 L
900 246.658 L
838 246.658 L
S
GR
GS
0 0 1 RC
1 LJ
3 LW
N
962 240.738 M
962 189.577 L
1024 189.577 L
1024 240.738 L
962 240.738 L
S
GR
GS
0 0 1 RC
1 LJ
3 LW
N
1086 231.183 M
1086 183.286 L
1148 183.286 L
1148 231.183 L
1086 231.183 L
S
GR
GS
0 0 1 RC
1 LJ
3 LW
N
1210 223.663 M
1210 176.632 L
1272 176.632 L
1272 223.663 L
1210 223.663 L
S
GR
GS
1 0 0 RC
1 LJ
3 LW
N
218 377.727 M
280 377.727 L
S
GR
GS
1 0 0 RC
1 LJ
3 LW
N
342 297.244 M
404 297.244 L
S
GR
GS
1 0 0 RC
1 LJ
3 LW
N
466 260.723 M
528 260.723 L
S
GR
GS
1 0 0 RC
1 LJ
3 LW
N
590 246.935 M
652 246.935 L
S
GR
GS
1 0 0 RC
1 LJ
3 LW
N
714 229.164 M
776 229.164 L
S
GR
GS
1 0 0 RC
1 LJ
3 LW
N
838 222.431 M
900 222.431 L
S
GR
GS
1 0 0 RC
1 LJ
3 LW
N
962 218.197 M
1024 218.197 L
S
GR
GS
1 0 0 RC
1 LJ
3 LW
N
1086 206.717 M
1148 206.717 L
S
GR
GS
1 0 0 RC
1 LJ
3 LW
N
1210 201.092 M
1272 201.092 L
S
GR
GS
1 0 0 RC
1 LJ
3 LW
N
246 673.773 M
252 673.773 L
S
GR
GS
1 0 0 RC
1 LJ
3 LW
N
249 676.773 M
249 670.773 L
S
GR
GS
1 0 0 RC
1 LJ
3 LW
N
246 654.603 M
252 654.603 L
S
GR
GS
1 0 0 RC
1 LJ
3 LW
N
249 657.603 M
249 651.603 L
S
GR
GS
1 0 0 RC
1 LJ
3 LW
N
370 495.274 M
376 495.274 L
S
GR
GS
1 0 0 RC
1 LJ
3 LW
N
373 498.274 M
373 492.274 L
S
GR
GS
1 0 0 RC
1 LJ
3 LW
N
370 492.6 M
376 492.6 L
S
GR
GS
1 0 0 RC
1 LJ
3 LW
N
373 495.6 M
373 489.6 L
S
GR
GS
1 0 0 RC
1 LJ
3 LW
N
370 468.013 M
376 468.013 L
S
GR
GS
1 0 0 RC
1 LJ
3 LW
N
373 471.013 M
373 465.013 L
S
GR
GS
1 0 0 RC
1 LJ
3 LW
N
370 462.52 M
376 462.52 L
S
GR
GS
1 0 0 RC
1 LJ
3 LW
N
373 465.52 M
373 459.52 L
S
GR
GS
1 0 0 RC
1 LJ
3 LW
N
370 452.985 M
376 452.985 L
S
GR
GS
1 0 0 RC
1 LJ
3 LW
N
373 455.985 M
373 449.985 L
S
GR
GS
1 0 0 RC
1 LJ
3 LW
N
370 451.948 M
376 451.948 L
S
GR
GS
1 0 0 RC
1 LJ
3 LW
N
373 454.948 M
373 448.948 L
S
GR
GS
1 0 0 RC
1 LJ
3 LW
N
370 89.923 M
376 89.923 L
S
GR
GS
1 0 0 RC
1 LJ
3 LW
N
373 92.923 M
373 86.923 L
S
GR
GS
1 0 0 RC
1 LJ
3 LW
N
494 447.064 M
500 447.064 L
S
GR
GS
1 0 0 RC
1 LJ
3 LW
N
497 450.064 M
497 444.064 L
S
GR
GS
1 0 0 RC
1 LJ
3 LW
N
494 437.88 M
500 437.88 L
S
GR
GS
1 0 0 RC
1 LJ
3 LW
N
497 440.88 M
497 434.88 L
S
GR
GS
1 0 0 RC
1 LJ
3 LW
N
618 393.325 M
624 393.325 L
S
GR
GS
1 0 0 RC
1 LJ
3 LW
N
621 396.325 M
621 390.325 L
S
GR
GS
1 0 0 RC
1 LJ
3 LW
N
618 374.388 M
624 374.388 L
S
GR
GS
1 0 0 RC
1 LJ
3 LW
N
621 377.388 M
621 371.388 L
S
GR
GS
1 0 0 RC
1 LJ
3 LW
N
618 122.943 M
624 122.943 L
S
GR
GS
1 0 0 RC
1 LJ
3 LW
N
621 125.943 M
621 119.943 L
S
GR
GS
1 0 0 RC
1 LJ
3 LW
N
618 112.223 M
624 112.223 L
S
GR
GS
1 0 0 RC
1 LJ
3 LW
N
621 115.223 M
621 109.223 L
S
GR
GS
1 0 0 RC
1 LJ
3 LW
N
742 369.704 M
748 369.704 L
S
GR
GS
1 0 0 RC
1 LJ
3 LW
N
745 372.704 M
745 366.704 L
S
GR
GS
1 0 0 RC
1 LJ
3 LW
N
866 330.558 M
872 330.558 L
S
GR
GS
1 0 0 RC
1 LJ
3 LW
N
869 333.558 M
869 327.558 L
S
GR
GS
1 0 0 RC
1 LJ
3 LW
N
866 329.036 M
872 329.036 L
S
GR
GS
1 0 0 RC
1 LJ
3 LW
N
869 332.036 M
869 326.036 L
S
GR
GS
1 0 0 RC
1 LJ
3 LW
N
866 327.944 M
872 327.944 L
S
GR
GS
1 0 0 RC
1 LJ
3 LW
N
869 330.944 M
869 324.944 L
S
GR
GS
1 0 0 RC
1 LJ
3 LW
N
866 114.531 M
872 114.531 L
S
GR
GS
1 0 0 RC
1 LJ
3 LW
N
869 117.531 M
869 111.531 L
S
GR
GS
1 0 0 RC
1 LJ
3 LW
N
866 107.515 M
872 107.515 L
S
GR
GS
1 0 0 RC
1 LJ
3 LW
N
869 110.515 M
869 104.515 L
S
GR
GS
1 0 0 RC
1 LJ
3 LW
N
866 103.842 M
872 103.842 L
S
GR
GS
1 0 0 RC
1 LJ
3 LW
N
869 106.842 M
869 100.842 L
S
GR
GS
1 0 0 RC
1 LJ
3 LW
N
866 103.538 M
872 103.538 L
S
GR
GS
1 0 0 RC
1 LJ
3 LW
N
869 106.538 M
869 100.538 L
S
GR
GS
1 0 0 RC
1 LJ
3 LW
N
990 96.813 M
996 96.813 L
S
GR
GS
1 0 0 RC
1 LJ
3 LW
N
993 99.813 M
993 93.813 L
S
GR
GS
1 0 0 RC
1 LJ
3 LW
N
1114 319.38 M
1120 319.38 L
S
GR
GS
1 0 0 RC
1 LJ
3 LW
N
1117 322.38 M
1117 316.38 L
S
GR
GS
1 0 0 RC
1 LJ
3 LW
N
1238 97.928 M
1244 97.928 L
S
GR
GS
1 0 0 RC
1 LJ
3 LW
N
1241 100.928 M
1241 94.928 L
S
GR
GS
1 0 0 RC
1 LJ
3 LW
N
1238 89.227 M
1244 89.227 L
S
GR
GS
1 0 0 RC
1 LJ
3 LW
N
1241 92.227 M
1241 86.227 L
S
GR
%%Trailer
%%Pages: 1
%%EOF
